{
  "include":"config/MLP_run.json",
  "sample_config": {
    "class_weight":[7.35,1,1,1,1,1,1,1],
    "sampling":{
      "StauStauISR_100_70_Nom":1,
  		"Higgs_Nom":0.01,
  		"SingleTop_Nom":0.01,
      "OtherTop_Nom":0.01,
  		"TopPair_Nom":0.01,
  		"VV_Nom":0.01,
  		"Wjets_Nom":0.01,
  		"Zlljets_Nom":0.01,
  		"Zttjets_Nom":0.01
    }
  }
}