0,1,2,3,4,5,6,7,8
Processes,StauStauISR_100_70_Nom,dijet_Nom,Higgs_Nom,Top_Nom,VV_Nom,Wjets_Nom,Zjets_Nom,Bkg
Sum of Weight,44.86443463356081,1.765938359759887,59.20529767175858,2502.1737112569854,1458.6638239386175,4253.112979808993,909.2529463406727,9184.174697376788
Raw Number,31031,28,10894,28796,281519,112744,155862,589843
