0,1,2,3,4,5,6,7,8,9,10,11,12,13,14,15,16,17,18,19,20,21,22,23,24,25,26,27,28,29,30,31,32,33,34,35,36,37,38,39,40,41,42,43,44,45,46,47,48,49,50,51,52,53,54,55,56,57,58,59,60,61,62,63,64
Processes,StauStauISR_100_50_Nom,StauStauISR_100_60_Nom,StauStauISR_100_70_Nom,StauStauISR_100_80_Nom,StauStauISR_100_90_Nom,StauStauISR_110_100_Nom,StauStauISR_110_60_Nom,StauStauISR_110_70_Nom,StauStauISR_110_80_Nom,StauStauISR_110_90_Nom,StauStauISR_120_100_Nom,StauStauISR_120_110_Nom,StauStauISR_120_60_Nom,StauStauISR_120_70_Nom,StauStauISR_120_80_Nom,StauStauISR_120_90_Nom,StauStauISR_130_100_Nom,StauStauISR_130_110_Nom,StauStauISR_130_120_Nom,StauStauISR_130_70_Nom,StauStauISR_130_80_Nom,StauStauISR_130_90_Nom,StauStauISR_140_100_Nom,StauStauISR_140_110_Nom,StauStauISR_140_120_Nom,StauStauISR_140_130_Nom,StauStauISR_140_80_Nom,StauStauISR_140_90_Nom,StauStauISR_150_100_Nom,StauStauISR_150_110_Nom,StauStauISR_150_120_Nom,StauStauISR_150_130_Nom,StauStauISR_150_140_Nom,StauStauISR_150_90_Nom,StauStauISR_160_100_Nom,StauStauISR_160_110_Nom,StauStauISR_160_120_Nom,StauStauISR_160_130_Nom,StauStauISR_160_140_Nom,StauStauISR_160_150_Nom,StauStauISR_180_120_Nom,StauStauISR_180_130_Nom,StauStauISR_180_140_Nom,StauStauISR_180_150_Nom,StauStauISR_180_160_Nom,StauStauISR_180_170_Nom,StauStauISR_200_140_Nom,StauStauISR_200_150_Nom,StauStauISR_200_160_Nom,StauStauISR_200_170_Nom,StauStauISR_200_180_Nom,StauStauISR_200_190_Nom,StauStauISR_90_40_Nom,StauStauISR_90_50_Nom,StauStauISR_90_60_Nom,StauStauISR_90_70_Nom,StauStauISR_90_80_Nom,dijet_Nom,Higgs_Nom,Top_Nom,VV_Nom,Wjets_Nom,Zjets_Nom,Bkg
Sum of Weight,46.47023805591354,46.44050236678545,39.54097897248097,29.71944188307441,11.0310420778168,9.412514656895283,46.72856837933821,41.88777687982411,35.386193337053335,27.0676139628609,20.11843499800509,6.473839709070802,39.291251324146316,36.770539955000984,34.08626108806496,28.737248596494386,24.39669841728697,17.87309380195928,5.75376320565996,34.48641386320135,31.41420061397593,29.545893523830884,24.932973599876842,21.105693715378873,14.391863039269317,5.040163287466052,30.00746716033555,27.323795361123082,23.596895329600734,22.035488303548583,17.455740596314442,11.766981110687773,3.345781641262425,25.31652144810038,24.515097861686854,21.693154193933143,19.076817897710654,15.369106565509673,9.970736774178235,2.680116263919475,18.266580359774217,17.657720629678792,15.055170866686742,11.82443724466632,7.753844993868533,2.2854687597004517,14.29677652860809,12.87947769353013,11.463542857234819,8.288342185726732,4.666094286183749,1.374670427561217,59.51735640806041,58.37015718891133,51.600273873394364,39.49070973673481,15.673272872687306,51.845378386499114,12.519690654734037,491.65981407672575,286.07601467461075,1982.2673394923343,364.56421992597143,3188.9324572108753
Raw Number,1961,1953,26723,1258,434,332,1854,1717,1419,1075,820,242,1638,1567,1102,1192,782,719,216,1431,1334,1207,810,681,578,203,1264,1202,1081,873,765,491,138,1130,1066,763,946,740,428,109,637,903,809,518,365,103,705,643,479,306,194,66,2406,2366,2094,1574,602,128,4010,5656,60996,16183,48371,135344
